<?xml version="1.0" encoding="UTF-8" standalone="no"?>
<svg xmlns="http://www.w3.org/2000/svg" width="64" height="64">
<path style="fill:#ffffff;fill-opacity:1;stroke:none" d="M51.7097,64L31.9558,50.3848L12.1555,63.9255L18.3733,39.9758L0,24.3713L23.5967,23.1848L32.0415,0L40.4072,23.2166L64,24.4919L45.5732,40.0269Z"/>
</svg>
